%YAML 1.1
%TAG !u! tag:unity3d.com,2011:
--- !u!1001 &5148352751890090920
PrefabInstance:
  m_ObjectHideFlags: 0
  serializedVersion: 2
  m_Modification:
    m_TransformParent: {fileID: 0}
    m_Modifications:
    - target: {fileID: 6760092717361838835, guid: 87b96592832c39a4983b2573a64f6273,
        type: 3}
      propertyPath: m_LocalPosition.y
      value: 0
      objectReference: {fileID: 0}
    - target: {fileID: 7129312828871408953, guid: 87b96592832c39a4983b2573a64f6273,
        type: 3}
      propertyPath: m_Name
      value: I Tetronome
      objectReference: {fileID: 0}
    - target: {fileID: 7129312828871408959, guid: 87b96592832c39a4983b2573a64f6273,
        type: 3}
      propertyPath: m_LocalPosition.x
      value: 0
      objectReference: {fileID: 0}
    - target: {fileID: 7129312828871408959, guid: 87b96592832c39a4983b2573a64f6273,
        type: 3}
      propertyPath: m_LocalPosition.y
      value: 0
      objectReference: {fileID: 0}
    - target: {fileID: 7129312828871408959, guid: 87b96592832c39a4983b2573a64f6273,
        type: 3}
      propertyPath: m_LocalPosition.z
      value: 0
      objectReference: {fileID: 0}
    - target: {fileID: 7129312828871408959, guid: 87b96592832c39a4983b2573a64f6273,
        type: 3}
      propertyPath: m_LocalRotation.x
      value: 0
      objectReference: {fileID: 0}
    - target: {fileID: 7129312828871408959, guid: 87b96592832c39a4983b2573a64f6273,
        type: 3}
      propertyPath: m_LocalRotation.y
      value: 0
      objectReference: {fileID: 0}
    - target: {fileID: 7129312828871408959, guid: 87b96592832c39a4983b2573a64f6273,
        type: 3}
      propertyPath: m_LocalRotation.z
      value: 0
      objectReference: {fileID: 0}
    - target: {fileID: 7129312828871408959, guid: 87b96592832c39a4983b2573a64f6273,
        type: 3}
      propertyPath: m_LocalRotation.w
      value: 1
      objectReference: {fileID: 0}
    - target: {fileID: 7129312828871408959, guid: 87b96592832c39a4983b2573a64f6273,
        type: 3}
      propertyPath: m_RootOrder
      value: 0
      objectReference: {fileID: 0}
    - target: {fileID: 7129312828871408959, guid: 87b96592832c39a4983b2573a64f6273,
        type: 3}
      propertyPath: m_LocalEulerAnglesHint.x
      value: 0
      objectReference: {fileID: 0}
    - target: {fileID: 7129312828871408959, guid: 87b96592832c39a4983b2573a64f6273,
        type: 3}
      propertyPath: m_LocalEulerAnglesHint.y
      value: 0
      objectReference: {fileID: 0}
    - target: {fileID: 7129312828871408959, guid: 87b96592832c39a4983b2573a64f6273,
        type: 3}
      propertyPath: m_LocalEulerAnglesHint.z
      value: 0
      objectReference: {fileID: 0}
    - target: {fileID: 8700828517554891751, guid: 87b96592832c39a4983b2573a64f6273,
        type: 3}
      propertyPath: m_LocalPosition.y
      value: 1
      objectReference: {fileID: 0}
    - target: {fileID: 8700828518104609265, guid: 87b96592832c39a4983b2573a64f6273,
        type: 3}
      propertyPath: m_LocalPosition.y
      value: -1
      objectReference: {fileID: 0}
    - target: {fileID: 8700828518104609265, guid: 87b96592832c39a4983b2573a64f6273,
        type: 3}
      propertyPath: m_LocalPosition.x
      value: 0
      objectReference: {fileID: 0}
    - target: {fileID: 8700828519284096117, guid: 87b96592832c39a4983b2573a64f6273,
        type: 3}
      propertyPath: m_LocalPosition.x
      value: 0
      objectReference: {fileID: 0}
    - target: {fileID: 8700828519284096117, guid: 87b96592832c39a4983b2573a64f6273,
        type: 3}
      propertyPath: m_LocalPosition.y
      value: -2
      objectReference: {fileID: 0}
    m_RemovedComponents: []
  m_SourcePrefab: {fileID: 100100000, guid: 87b96592832c39a4983b2573a64f6273, type: 3}
