%YAML 1.1
%TAG !u! tag:unity3d.com,2011:
--- !u!1001 &1187566352615755921
PrefabInstance:
  m_ObjectHideFlags: 0
  serializedVersion: 2
  m_Modification:
    m_TransformParent: {fileID: 0}
    m_Modifications:
    - target: {fileID: 987539487194887573, guid: c115203f51d67e746bd9990c0375e890,
        type: 3}
      propertyPath: m_LocalPosition.y
      value: 0
      objectReference: {fileID: 0}
    - target: {fileID: 2944034865079038739, guid: c115203f51d67e746bd9990c0375e890,
        type: 3}
      propertyPath: m_LocalPosition.y
      value: 0
      objectReference: {fileID: 0}
    - target: {fileID: 2944034865079038739, guid: c115203f51d67e746bd9990c0375e890,
        type: 3}
      propertyPath: m_LocalPosition.x
      value: 1
      objectReference: {fileID: 0}
    - target: {fileID: 2944034866193514135, guid: c115203f51d67e746bd9990c0375e890,
        type: 3}
      propertyPath: m_LocalPosition.y
      value: 1
      objectReference: {fileID: 0}
    - target: {fileID: 2944034866193514135, guid: c115203f51d67e746bd9990c0375e890,
        type: 3}
      propertyPath: m_LocalPosition.x
      value: 0
      objectReference: {fileID: 0}
    - target: {fileID: 2944034866709144705, guid: c115203f51d67e746bd9990c0375e890,
        type: 3}
      propertyPath: m_LocalPosition.x
      value: 0
      objectReference: {fileID: 0}
    - target: {fileID: 2944034866709144705, guid: c115203f51d67e746bd9990c0375e890,
        type: 3}
      propertyPath: m_LocalPosition.y
      value: 2
      objectReference: {fileID: 0}
    - target: {fileID: 3644737362868662873, guid: c115203f51d67e746bd9990c0375e890,
        type: 3}
      propertyPath: m_LocalPosition.x
      value: 0
      objectReference: {fileID: 0}
    - target: {fileID: 3644737362868662873, guid: c115203f51d67e746bd9990c0375e890,
        type: 3}
      propertyPath: m_LocalPosition.y
      value: 0
      objectReference: {fileID: 0}
    - target: {fileID: 3644737362868662873, guid: c115203f51d67e746bd9990c0375e890,
        type: 3}
      propertyPath: m_LocalPosition.z
      value: 0
      objectReference: {fileID: 0}
    - target: {fileID: 3644737362868662873, guid: c115203f51d67e746bd9990c0375e890,
        type: 3}
      propertyPath: m_LocalRotation.x
      value: 0
      objectReference: {fileID: 0}
    - target: {fileID: 3644737362868662873, guid: c115203f51d67e746bd9990c0375e890,
        type: 3}
      propertyPath: m_LocalRotation.y
      value: 0
      objectReference: {fileID: 0}
    - target: {fileID: 3644737362868662873, guid: c115203f51d67e746bd9990c0375e890,
        type: 3}
      propertyPath: m_LocalRotation.z
      value: 0
      objectReference: {fileID: 0}
    - target: {fileID: 3644737362868662873, guid: c115203f51d67e746bd9990c0375e890,
        type: 3}
      propertyPath: m_LocalRotation.w
      value: 1
      objectReference: {fileID: 0}
    - target: {fileID: 3644737362868662873, guid: c115203f51d67e746bd9990c0375e890,
        type: 3}
      propertyPath: m_RootOrder
      value: 0
      objectReference: {fileID: 0}
    - target: {fileID: 3644737362868662873, guid: c115203f51d67e746bd9990c0375e890,
        type: 3}
      propertyPath: m_LocalEulerAnglesHint.x
      value: 0
      objectReference: {fileID: 0}
    - target: {fileID: 3644737362868662873, guid: c115203f51d67e746bd9990c0375e890,
        type: 3}
      propertyPath: m_LocalEulerAnglesHint.y
      value: 0
      objectReference: {fileID: 0}
    - target: {fileID: 3644737362868662873, guid: c115203f51d67e746bd9990c0375e890,
        type: 3}
      propertyPath: m_LocalEulerAnglesHint.z
      value: 0
      objectReference: {fileID: 0}
    - target: {fileID: 3644737362868662879, guid: c115203f51d67e746bd9990c0375e890,
        type: 3}
      propertyPath: m_Name
      value: asd
      objectReference: {fileID: 0}
    m_RemovedComponents: []
  m_SourcePrefab: {fileID: 100100000, guid: c115203f51d67e746bd9990c0375e890, type: 3}
