%YAML 1.1
%TAG !u! tag:unity3d.com,2011:
--- !u!1045 &1
EditorBuildSettings:
  m_ObjectHideFlags: 0
  serializedVersion: 2
  m_Scenes:
  - enabled: 0
    path: Assets/Scenes/SampleScene.unity
    guid: 2cda990e2423bbf4892e6590ba056729
  - enabled: 1
    path: Assets/Scenes/BigGrid.unity
    guid: c2de2f5977c296a46a1a21648e272a2a
  m_configObjects: {}
